{
  "project_info": {
    "project_number": "75215716739",
    "firebase_url": "https://foculance.firebaseio.com",
    "project_id": "foculance",
    "storage_bucket": "foculance.appspot.com"
  },
  "client": [
    {
      "client_info": {
        "mobilesdk_app_id": "1:75215716739:android:6f9d4918474f24168436b6",
        "android_client_info": {
          "package_name": "com.b201crew.foculance"
        }
      },
      "oauth_client": [
        {
          "client_id": "75215716739-ojum3riciufqmsm0lr3h0irtmjtss3ec.apps.googleusercontent.com",
          "client_type": 1,
          "android_info": {
            "package_name": "com.b201crew.foculance",
            "certificate_hash": "a9a9432a648701645d560574d22fa03faedaf959"
          }
        },
        {
          "client_id": "75215716739-beu9hgrbhhcjcpk6dqarp3q1nleqf6lv.apps.googleusercontent.com",
          "client_type": 3
        }
      ],
      "api_key": [
        {
          "current_key": "AIzaSyDc-N6Mew3ajPEQ7IpLANg0mq5EPDd8e1A"
        }
      ],
      "services": {
        "appinvite_service": {
          "other_platform_oauth_client": [
            {
              "client_id": "75215716739-beu9hgrbhhcjcpk6dqarp3q1nleqf6lv.apps.googleusercontent.com",
              "client_type": 3
            }
          ]
        }
      }
    },
    {
      "client_info": {
        "mobilesdk_app_id": "1:75215716739:android:717fd512dd934fbf8436b6",
        "android_client_info": {
          "package_name": "com.example.foculanceforparent"
        }
      },
      "oauth_client": [
        {
          "client_id": "75215716739-njg2aco1enj6h474kb1iocqvj6lr84dm.apps.googleusercontent.com",
          "client_type": 1,
          "android_info": {
            "package_name": "com.example.foculanceforparent",
            "certificate_hash": "44b702aebc1b724dfe6b86746fa46422cb89e826"
          }
        },
        {
          "client_id": "75215716739-beu9hgrbhhcjcpk6dqarp3q1nleqf6lv.apps.googleusercontent.com",
          "client_type": 3
        }
      ],
      "api_key": [
        {
          "current_key": "AIzaSyDc-N6Mew3ajPEQ7IpLANg0mq5EPDd8e1A"
        }
      ],
      "services": {
        "appinvite_service": {
          "other_platform_oauth_client": [
            {
              "client_id": "75215716739-beu9hgrbhhcjcpk6dqarp3q1nleqf6lv.apps.googleusercontent.com",
              "client_type": 3
            }
          ]
        }
      }
    }
  ],
  "configuration_version": "1"
}